대학원신입생과제_Rbasic
…
# ans
flights %>%
  group_by(year, month, day) %>%
  select(arr_delay, dep_delay) %>%
  summarise(
    mean_arr_delay = mean(arr_delay, na.rm = TRUE),
    mean_dep_delay = mean(dep_delay, na.rm = TRUE)
  ) %>%
  filter(mean_arr_delay > 30 | mean_dep_delay > 30)

## Adding missing grouping variables: `year`, `month`, `day`

## # A tibble: 49 x 5
## # Groups:   year, month [11]
##     year month   day mean_arr_delay mean_dep_delay
##    <int> <int> <int>          <dbl>          <dbl>
##  1  2013     1    16           34.2           24.6
##  2  2013     1    31           32.6           28.7
##  3  2013     2    11           36.3           39.1
##  4  2013     2    27           31.3           37.8
##  5  2013     3     8           85.9           83.5
##  6  2013     3    18           41.3           30.1
##  7  2013     4    10           38.4           33.0
##  8  2013     4    12           36.0           34.8
##  9  2013     4    18           36.0           34.9
## 10  2013     4    19           47.9           46.1
## # ... with 39 more rows
